…
The character variables still can’t be numeric unless numbers involved
in the character vector and that’s why we can’t have mean of these
variables. Factor vector can be converted into numeric varibales.
Although the numbers they converted can be arbitrary numbers, there are
also no mean for factor variables.

## Problem 2

``` r
data("penguins", package = "palmerpenguins")
penguins
```

    ## # A tibble: 344 × 8
    ##    species island    bill_length_mm bill_depth_mm flipper_length_mm body_mass_g
    ##    <fct>   <fct>              <dbl>         <dbl>             <int>       <int>
    ##  1 Adelie  Torgersen           39.1          18.7               181        3750
    ##  2 Adelie  Torgersen           39.5          17.4               186        3800
    ##  3 Adelie  Torgersen           40.3          18                 195        3250
    ##  4 Adelie  Torgersen           NA            NA                  NA          NA
    ##  5 Adelie  Torgersen           36.7          19.3               193        3450
    ##  6 Adelie  Torgersen           39.3          20.6               190        3650
    ##  7 Adelie  Torgersen           38.9          17.8               181        3625
    ##  8 Adelie  Torgersen           39.2          19.6               195        4675
    ##  9 Adelie  Torgersen           34.1          18.1               193        3475
    ## 10 Adelie  Torgersen           42            20.2               190        4250
    ## # … with 334 more rows, and 2 more variables: sex <fct>, year <int>
…
